G04 #@! TF.GenerationSoftware,KiCad,Pcbnew,5.0.2*
G04 #@! TF.CreationDate,2019-05-28T10:19:17+01:00*
G04 #@! TF.ProjectId,USBInlinePWMmer,55534249-6e6c-4696-9e65-50574d6d6572,rev?*
G04 #@! TF.SameCoordinates,Original*
G04 #@! TF.FileFunction,Copper,L2,Bot*
G04 #@! TF.FilePolarity,Positive*
%FSLAX46Y46*%
G04 Gerber Fmt 4.6, Leading zero omitted, Abs format (unit mm)*
G04 Created by KiCad (PCBNEW 5.0.2) date Tue 28 May 2019 10:19:17 BST*
%MOMM*%
%LPD*%
G01*
G04 APERTURE LIST*
G04 #@! TA.AperFunction,ComponentPad*
%ADD10C,3.300000*%
G04 #@! TD*
G04 #@! TA.AperFunction,ComponentPad*
%ADD11C,1.900000*%
G04 #@! TD*
G04 #@! TA.AperFunction,ViaPad*
%ADD12O,3.500000X1.900000*%
G04 #@! TD*
G04 #@! TA.AperFunction,ViaPad*
%ADD13C,0.700000*%
G04 #@! TD*
G04 #@! TA.AperFunction,ViaPad*
%ADD14C,0.600000*%
G04 #@! TD*
G04 #@! TA.AperFunction,Conductor*
%ADD15C,0.600000*%
G04 #@! TD*
G04 #@! TA.AperFunction,Conductor*
%ADD16C,0.250000*%
G04 #@! TD*
G04 #@! TA.AperFunction,Conductor*
%ADD17C,0.200000*%
G04 #@! TD*
G04 APERTURE END LIST*
D10*
G04 #@! TO.P,J102,5*
G04 #@! TO.N,GND*
X106500000Y-46570000D03*
X106500000Y-33430000D03*
D11*
G04 #@! TO.P,J102,1*
G04 #@! TO.N,Net-(J102-Pad1)*
X103790000Y-43750000D03*
G04 #@! TO.P,J102,2*
G04 #@! TO.N,Net-(J102-Pad2)*
X103775000Y-41250000D03*
G04 #@! TO.P,J102,3*
G04 #@! TO.N,Net-(J102-Pad3)*
X103800000Y-38750000D03*
G04 #@! TO.P,J102,4*
G04 #@! TO.N,GND*
X103790000Y-36250000D03*
G04 #@! TD*
D12*
G04 #@! TO.N,GND*
G04 #@! TO.C,J101*
X63100000Y-44500000D03*
X63100000Y-33100000D03*
G04 #@! TD*
D13*
G04 #@! TO.N,+5V*
X63699990Y-53000000D03*
D14*
X106832500Y-53086000D03*
G04 #@! TO.N,GND*
X97668000Y-24746000D03*
X91668000Y-24746000D03*
X79668000Y-24746000D03*
X73668000Y-24746000D03*
D13*
X101250000Y-34000000D03*
X69500000Y-50000000D03*
X61700000Y-48000000D03*
X62600000Y-51000000D03*
X104183509Y-51341491D03*
X77962500Y-34305500D03*
X101287542Y-48000000D03*
X69400000Y-51749990D03*
X70300000Y-45804000D03*
X72000000Y-43604000D03*
G04 #@! TO.N,/RST*
X95631000Y-28746000D03*
X99699994Y-45100000D03*
D14*
G04 #@! TO.N,/GPIO2*
X99758500Y-52006500D03*
X92338500Y-47763010D03*
G04 #@! TO.N,/GPIO0*
X79537500Y-40000000D03*
X79086692Y-30255192D03*
G04 #@! TO.N,/DTR*
X72707500Y-36322000D03*
X84880500Y-24246000D03*
G04 #@! TO.N,/RTS*
X73342500Y-35115500D03*
X86455500Y-29246000D03*
G04 #@! TD*
D15*
G04 #@! TO.N,+5V*
X63699990Y-53000000D02*
X74500000Y-53000000D01*
X74500000Y-53000000D02*
X80637000Y-46863000D01*
X104584500Y-53086000D02*
X106832500Y-53086000D01*
X98361500Y-46863000D02*
X104584500Y-53086000D01*
X80637000Y-46863000D02*
X98361500Y-46863000D01*
D16*
G04 #@! TO.N,/RST*
X99699994Y-44605026D02*
X99699994Y-45100000D01*
X99699994Y-32814994D02*
X99699994Y-44605026D01*
X95631000Y-28746000D02*
X99699994Y-32814994D01*
G04 #@! TO.N,/GPIO2*
X92338500Y-47763010D02*
X98182010Y-47763010D01*
X98182010Y-47763010D02*
X99758500Y-49339500D01*
X99758500Y-49339500D02*
X99758500Y-51582236D01*
X99758500Y-51582236D02*
X99758500Y-52006500D01*
G04 #@! TO.N,/GPIO0*
X79537500Y-39425000D02*
X79537500Y-40000000D01*
X79086692Y-30255192D02*
X79057500Y-30284384D01*
X79057500Y-38945000D02*
X79537500Y-39425000D01*
X79057500Y-30284384D02*
X79057500Y-38945000D01*
G04 #@! TO.N,/DTR*
X84343000Y-24246000D02*
X84880500Y-24246000D01*
X83286998Y-24246000D02*
X84343000Y-24246000D01*
X72707500Y-34825498D02*
X83286998Y-24246000D01*
X72707500Y-36322000D02*
X72707500Y-34825498D01*
G04 #@! TO.N,/RTS*
X73279000Y-35052000D02*
X73342500Y-35115500D01*
X79212000Y-29246000D02*
X73342500Y-35115500D01*
X86455500Y-29246000D02*
X79212000Y-29246000D01*
G04 #@! TD*
D17*
G04 #@! TO.N,GND*
G36*
X105897752Y-22989434D02*
X105949472Y-22997440D01*
X106703254Y-23074006D01*
X107377781Y-23285391D01*
X107996027Y-23628089D01*
X108532739Y-24088107D01*
X108965987Y-24646647D01*
X109278075Y-25280893D01*
X109457811Y-25970909D01*
X109501474Y-26538359D01*
X109519369Y-26637819D01*
X109525000Y-26651897D01*
X109525001Y-50852248D01*
X109510566Y-50897752D01*
X109502560Y-50949472D01*
X109425994Y-51703254D01*
X109214609Y-52377783D01*
X108871910Y-52996029D01*
X108411893Y-53532739D01*
X107853354Y-53965986D01*
X107219108Y-54278074D01*
X106529086Y-54457812D01*
X105961641Y-54501474D01*
X105862182Y-54519369D01*
X105848103Y-54525000D01*
X98100000Y-54525000D01*
X98100000Y-49000000D01*
X98092388Y-48961732D01*
X98070711Y-48929289D01*
X98038268Y-48907612D01*
X98000000Y-48900000D01*
X81000000Y-48900000D01*
X80961732Y-48907612D01*
X80929289Y-48929289D01*
X80907612Y-48961732D01*
X80900000Y-49000000D01*
X80900000Y-54525000D01*
X64147749Y-54525000D01*
X64102248Y-54510566D01*
X64050528Y-54502560D01*
X63296746Y-54425994D01*
X62622217Y-54214609D01*
X62003971Y-53871910D01*
X61467261Y-53411893D01*
X61034014Y-52853354D01*
X61032766Y-52850816D01*
X62949990Y-52850816D01*
X62949990Y-53149184D01*
X63064171Y-53424841D01*
X63275149Y-53635819D01*
X63550806Y-53750000D01*
X63849174Y-53750000D01*
X63969885Y-53700000D01*
X74431065Y-53700000D01*
X74500000Y-53713712D01*
X74568935Y-53700000D01*
X74568940Y-53700000D01*
X74773126Y-53659385D01*
X75004671Y-53504671D01*
X75043725Y-53446223D01*
X80926949Y-47563000D01*
X91663672Y-47563000D01*
X91638500Y-47623771D01*
X91638500Y-47902249D01*
X91745068Y-48159528D01*
X91941982Y-48356442D01*
X92199261Y-48463010D01*
X92477739Y-48463010D01*
X92735018Y-48356442D01*
X92803450Y-48288010D01*
X97964549Y-48288010D01*
X99233500Y-49556963D01*
X99233501Y-51530526D01*
X99233500Y-51530531D01*
X99233500Y-51541550D01*
X99165068Y-51609982D01*
X99058500Y-51867261D01*
X99058500Y-52145739D01*
X99165068Y-52403018D01*
X99361982Y-52599932D01*
X99619261Y-52706500D01*
X99897739Y-52706500D01*
X100155018Y-52599932D01*
X100351932Y-52403018D01*
X100458500Y-52145739D01*
X100458500Y-51867261D01*
X100351932Y-51609982D01*
X100283500Y-51541550D01*
X100283500Y-49774948D01*
X104040777Y-53532226D01*
X104079829Y-53590671D01*
X104311374Y-53745385D01*
X104515560Y-53786000D01*
X104515565Y-53786000D01*
X104584500Y-53799712D01*
X104653435Y-53786000D01*
X106971739Y-53786000D01*
X107036687Y-53759098D01*
X107105626Y-53745385D01*
X107164068Y-53706335D01*
X107229018Y-53679432D01*
X107278729Y-53629721D01*
X107337171Y-53590671D01*
X107376221Y-53532229D01*
X107425932Y-53482518D01*
X107452835Y-53417568D01*
X107491885Y-53359126D01*
X107505598Y-53290187D01*
X107532500Y-53225239D01*
X107532500Y-53154940D01*
X107546213Y-53086000D01*
X107532500Y-53017060D01*
X107532500Y-52946761D01*
X107505598Y-52881813D01*
X107491885Y-52812874D01*
X107452835Y-52754432D01*
X107425932Y-52689482D01*
X107376221Y-52639771D01*
X107337171Y-52581329D01*
X107278729Y-52542279D01*
X107229018Y-52492568D01*
X107164068Y-52465665D01*
X107105626Y-52426615D01*
X107036687Y-52412902D01*
X106971739Y-52386000D01*
X104874449Y-52386000D01*
X100534639Y-48046190D01*
X105165231Y-48046190D01*
X105353742Y-48317819D01*
X106109857Y-48623427D01*
X106925369Y-48616421D01*
X107646258Y-48317819D01*
X107834769Y-48046190D01*
X106500000Y-46711421D01*
X105165231Y-48046190D01*
X100534639Y-48046190D01*
X98905225Y-46416777D01*
X98866171Y-46358329D01*
X98634626Y-46203615D01*
X98515187Y-46179857D01*
X104446573Y-46179857D01*
X104453579Y-46995369D01*
X104752181Y-47716258D01*
X105023810Y-47904769D01*
X106358579Y-46570000D01*
X106641421Y-46570000D01*
X107976190Y-47904769D01*
X108247819Y-47716258D01*
X108553427Y-46960143D01*
X108546421Y-46144631D01*
X108247819Y-45423742D01*
X107976190Y-45235231D01*
X106641421Y-46570000D01*
X106358579Y-46570000D01*
X105023810Y-45235231D01*
X104752181Y-45423742D01*
X104446573Y-46179857D01*
X98515187Y-46179857D01*
X98430440Y-46163000D01*
X98430435Y-46163000D01*
X98361500Y-46149288D01*
X98292565Y-46163000D01*
X80705936Y-46163000D01*
X80637000Y-46149288D01*
X80568063Y-46163000D01*
X80568060Y-46163000D01*
X80410040Y-46194432D01*
X80363873Y-46203615D01*
X80227190Y-46294945D01*
X80132329Y-46358329D01*
X80093277Y-46416774D01*
X74210052Y-52300000D01*
X63969885Y-52300000D01*
X63849174Y-52250000D01*
X63550806Y-52250000D01*
X63275149Y-52364181D01*
X63064171Y-52575159D01*
X62949990Y-52850816D01*
X61032766Y-52850816D01*
X60721926Y-52219108D01*
X60542188Y-51529086D01*
X60498526Y-50961641D01*
X60480631Y-50862182D01*
X60475000Y-50848103D01*
X60475000Y-44809375D01*
X60985928Y-44809375D01*
X61014494Y-44924234D01*
X61274695Y-45383883D01*
X61690989Y-45708969D01*
X62200000Y-45850000D01*
X63000000Y-45850000D01*
X63000000Y-44600000D01*
X63200000Y-44600000D01*
X63200000Y-45850000D01*
X64000000Y-45850000D01*
X64509011Y-45708969D01*
X64925305Y-45383883D01*
X65185506Y-44924234D01*
X65214072Y-44809375D01*
X65145994Y-44600000D01*
X63200000Y-44600000D01*
X63000000Y-44600000D01*
X61054006Y-44600000D01*
X60985928Y-44809375D01*
X60475000Y-44809375D01*
X60475000Y-44190625D01*
X60985928Y-44190625D01*
X61054006Y-44400000D01*
X63000000Y-44400000D01*
X63000000Y-43150000D01*
X63200000Y-43150000D01*
X63200000Y-44400000D01*
X65145994Y-44400000D01*
X65214072Y-44190625D01*
X65185506Y-44075766D01*
X64925305Y-43616117D01*
X64509011Y-43291031D01*
X64000000Y-43150000D01*
X63200000Y-43150000D01*
X63000000Y-43150000D01*
X62200000Y-43150000D01*
X61690989Y-43291031D01*
X61274695Y-43616117D01*
X61014494Y-44075766D01*
X60985928Y-44190625D01*
X60475000Y-44190625D01*
X60475000Y-40911033D01*
X62150000Y-40911033D01*
X62150000Y-41288967D01*
X62294629Y-41638132D01*
X62561868Y-41905371D01*
X62911033Y-42050000D01*
X63288967Y-42050000D01*
X63638132Y-41905371D01*
X63905371Y-41638132D01*
X64050000Y-41288967D01*
X64050000Y-40911033D01*
X63905371Y-40561868D01*
X63638132Y-40294629D01*
X63288967Y-40150000D01*
X62911033Y-40150000D01*
X62561868Y-40294629D01*
X62294629Y-40561868D01*
X62150000Y-40911033D01*
X60475000Y-40911033D01*
X60475000Y-36311033D01*
X62150000Y-36311033D01*
X62150000Y-36688967D01*
X62294629Y-37038132D01*
X62561868Y-37305371D01*
X62911033Y-37450000D01*
X63288967Y-37450000D01*
X63638132Y-37305371D01*
X63905371Y-37038132D01*
X64050000Y-36688967D01*
X64050000Y-36311033D01*
X63996868Y-36182761D01*
X72007500Y-36182761D01*
X72007500Y-36461239D01*
X72114068Y-36718518D01*
X72310982Y-36915432D01*
X72568261Y-37022000D01*
X72846739Y-37022000D01*
X73104018Y-36915432D01*
X73300932Y-36718518D01*
X73407500Y-36461239D01*
X73407500Y-36182761D01*
X73300932Y-35925482D01*
X73232500Y-35857050D01*
X73232500Y-35815500D01*
X73481739Y-35815500D01*
X73739018Y-35708932D01*
X73935932Y-35512018D01*
X74042500Y-35254739D01*
X74042500Y-35157961D01*
X78521006Y-30679456D01*
X78532500Y-30690950D01*
X78532501Y-38893289D01*
X78522215Y-38945000D01*
X78562961Y-39149844D01*
X78562962Y-39149845D01*
X78678997Y-39323504D01*
X78722833Y-39352794D01*
X78958794Y-39588756D01*
X78944068Y-39603482D01*
X78837500Y-39860761D01*
X78837500Y-40139239D01*
X78944068Y-40396518D01*
X79140982Y-40593432D01*
X79398261Y-40700000D01*
X79676739Y-40700000D01*
X79934018Y-40593432D01*
X80130932Y-40396518D01*
X80237500Y-40139239D01*
X80237500Y-39860761D01*
X80130932Y-39603482D01*
X80062500Y-39535050D01*
X80062500Y-39476706D01*
X80072785Y-39425000D01*
X80032039Y-39220155D01*
X79945293Y-39090330D01*
X79916004Y-39046496D01*
X79872170Y-39017207D01*
X79582500Y-38727538D01*
X79582500Y-30749334D01*
X79680124Y-30651710D01*
X79786692Y-30394431D01*
X79786692Y-30115953D01*
X79680124Y-29858674D01*
X79592450Y-29771000D01*
X85990550Y-29771000D01*
X86058982Y-29839432D01*
X86316261Y-29946000D01*
X86594739Y-29946000D01*
X86852018Y-29839432D01*
X87048932Y-29642518D01*
X87155500Y-29385239D01*
X87155500Y-29106761D01*
X87048932Y-28849482D01*
X86852018Y-28652568D01*
X86717421Y-28596816D01*
X94881000Y-28596816D01*
X94881000Y-28895184D01*
X94995181Y-29170841D01*
X95206159Y-29381819D01*
X95481816Y-29496000D01*
X95638539Y-29496000D01*
X99174994Y-33032457D01*
X99174995Y-44553316D01*
X99174994Y-44553321D01*
X99174994Y-44564340D01*
X99064175Y-44675159D01*
X98949994Y-44950816D01*
X98949994Y-45249184D01*
X99064175Y-45524841D01*
X99275153Y-45735819D01*
X99550810Y-45850000D01*
X99849178Y-45850000D01*
X100124835Y-45735819D01*
X100335813Y-45524841D01*
X100449994Y-45249184D01*
X100449994Y-44950816D01*
X100335813Y-44675159D01*
X100224994Y-44564340D01*
X100224994Y-40981468D01*
X102425000Y-40981468D01*
X102425000Y-41518532D01*
X102630525Y-42014714D01*
X103010286Y-42394475D01*
X103272546Y-42503107D01*
X103025286Y-42605525D01*
X102645525Y-42985286D01*
X102440000Y-43481468D01*
X102440000Y-44018532D01*
X102645525Y-44514714D01*
X103025286Y-44894475D01*
X103521468Y-45100000D01*
X104058532Y-45100000D01*
X104073476Y-45093810D01*
X105165231Y-45093810D01*
X106500000Y-46428579D01*
X107834769Y-45093810D01*
X107646258Y-44822181D01*
X106890143Y-44516573D01*
X106074631Y-44523579D01*
X105353742Y-44822181D01*
X105165231Y-45093810D01*
X104073476Y-45093810D01*
X104554714Y-44894475D01*
X104934475Y-44514714D01*
X105140000Y-44018532D01*
X105140000Y-43481468D01*
X104934475Y-42985286D01*
X104554714Y-42605525D01*
X104292454Y-42496893D01*
X104539714Y-42394475D01*
X104919475Y-42014714D01*
X105125000Y-41518532D01*
X105125000Y-40981468D01*
X104919475Y-40485286D01*
X104539714Y-40105525D01*
X104297454Y-40005178D01*
X104564714Y-39894475D01*
X104944475Y-39514714D01*
X105150000Y-39018532D01*
X105150000Y-38481468D01*
X104944475Y-37985286D01*
X104564714Y-37605525D01*
X104315699Y-37502380D01*
X104516016Y-37419406D01*
X104619100Y-37220522D01*
X103790000Y-36391421D01*
X102960900Y-37220522D01*
X103063984Y-37419406D01*
X103284596Y-37502257D01*
X103035286Y-37605525D01*
X102655525Y-37985286D01*
X102450000Y-38481468D01*
X102450000Y-39018532D01*
X102655525Y-39514714D01*
X103035286Y-39894475D01*
X103277546Y-39994822D01*
X103010286Y-40105525D01*
X102630525Y-40485286D01*
X102425000Y-40981468D01*
X100224994Y-40981468D01*
X100224994Y-36026761D01*
X102431775Y-36026761D01*
X102449734Y-36563524D01*
X102620594Y-36976016D01*
X102819478Y-37079100D01*
X103648579Y-36250000D01*
X103931421Y-36250000D01*
X104760522Y-37079100D01*
X104959406Y-36976016D01*
X105148225Y-36473239D01*
X105130266Y-35936476D01*
X104959406Y-35523984D01*
X104760522Y-35420900D01*
X103931421Y-36250000D01*
X103648579Y-36250000D01*
X102819478Y-35420900D01*
X102620594Y-35523984D01*
X102431775Y-36026761D01*
X100224994Y-36026761D01*
X100224994Y-35279478D01*
X102960900Y-35279478D01*
X103790000Y-36108579D01*
X104619100Y-35279478D01*
X104516016Y-35080594D01*
X104051623Y-34906190D01*
X105165231Y-34906190D01*
X105353742Y-35177819D01*
X106109857Y-35483427D01*
X106925369Y-35476421D01*
X107646258Y-35177819D01*
X107834769Y-34906190D01*
X106500000Y-33571421D01*
X105165231Y-34906190D01*
X104051623Y-34906190D01*
X104013239Y-34891775D01*
X103476476Y-34909734D01*
X103063984Y-35080594D01*
X102960900Y-35279478D01*
X100224994Y-35279478D01*
X100224994Y-33039857D01*
X104446573Y-33039857D01*
X104453579Y-33855369D01*
X104752181Y-34576258D01*
X105023810Y-34764769D01*
X106358579Y-33430000D01*
X106641421Y-33430000D01*
X107976190Y-34764769D01*
X108247819Y-34576258D01*
X108553427Y-33820143D01*
X108546421Y-33004631D01*
X108247819Y-32283742D01*
X107976190Y-32095231D01*
X106641421Y-33430000D01*
X106358579Y-33430000D01*
X105023810Y-32095231D01*
X104752181Y-32283742D01*
X104446573Y-33039857D01*
X100224994Y-33039857D01*
X100224994Y-32866700D01*
X100235279Y-32814994D01*
X100194533Y-32610149D01*
X100107787Y-32480324D01*
X100078498Y-32436490D01*
X100034665Y-32407202D01*
X99581273Y-31953810D01*
X105165231Y-31953810D01*
X106500000Y-33288579D01*
X107834769Y-31953810D01*
X107646258Y-31682181D01*
X106890143Y-31376573D01*
X106074631Y-31383579D01*
X105353742Y-31682181D01*
X105165231Y-31953810D01*
X99581273Y-31953810D01*
X96381000Y-28753539D01*
X96381000Y-28596816D01*
X96266819Y-28321159D01*
X96055841Y-28110181D01*
X95780184Y-27996000D01*
X95481816Y-27996000D01*
X95206159Y-28110181D01*
X94995181Y-28321159D01*
X94881000Y-28596816D01*
X86717421Y-28596816D01*
X86594739Y-28546000D01*
X86316261Y-28546000D01*
X86058982Y-28652568D01*
X85990550Y-28721000D01*
X79554460Y-28721000D01*
X82173285Y-26102175D01*
X104000000Y-26102175D01*
X104000000Y-26897825D01*
X104304482Y-27632909D01*
X104867091Y-28195518D01*
X105602175Y-28500000D01*
X106397825Y-28500000D01*
X107132909Y-28195518D01*
X107695518Y-27632909D01*
X108000000Y-26897825D01*
X108000000Y-26102175D01*
X107695518Y-25367091D01*
X107132909Y-24804482D01*
X106397825Y-24500000D01*
X105602175Y-24500000D01*
X104867091Y-24804482D01*
X104304482Y-25367091D01*
X104000000Y-26102175D01*
X82173285Y-26102175D01*
X83504461Y-24771000D01*
X84415550Y-24771000D01*
X84483982Y-24839432D01*
X84741261Y-24946000D01*
X85019739Y-24946000D01*
X85277018Y-24839432D01*
X85473932Y-24642518D01*
X85580500Y-24385239D01*
X85580500Y-24106761D01*
X85473932Y-23849482D01*
X85277018Y-23652568D01*
X85019739Y-23546000D01*
X84741261Y-23546000D01*
X84483982Y-23652568D01*
X84415550Y-23721000D01*
X83338704Y-23721000D01*
X83286998Y-23710715D01*
X83082153Y-23751461D01*
X82908494Y-23867496D01*
X82879205Y-23911330D01*
X72372834Y-34417703D01*
X72328997Y-34446994D01*
X72245548Y-34571885D01*
X72212961Y-34620654D01*
X72172215Y-34825498D01*
X72182501Y-34877209D01*
X72182500Y-35857050D01*
X72114068Y-35925482D01*
X72007500Y-36182761D01*
X63996868Y-36182761D01*
X63905371Y-35961868D01*
X63638132Y-35694629D01*
X63288967Y-35550000D01*
X62911033Y-35550000D01*
X62561868Y-35694629D01*
X62294629Y-35961868D01*
X62150000Y-36311033D01*
X60475000Y-36311033D01*
X60475000Y-33409375D01*
X60985928Y-33409375D01*
X61014494Y-33524234D01*
X61274695Y-33983883D01*
X61690989Y-34308969D01*
X62200000Y-34450000D01*
X63000000Y-34450000D01*
X63000000Y-33200000D01*
X63200000Y-33200000D01*
X63200000Y-34450000D01*
X64000000Y-34450000D01*
X64509011Y-34308969D01*
X64925305Y-33983883D01*
X65185506Y-33524234D01*
X65214072Y-33409375D01*
X65145994Y-33200000D01*
X63200000Y-33200000D01*
X63000000Y-33200000D01*
X61054006Y-33200000D01*
X60985928Y-33409375D01*
X60475000Y-33409375D01*
X60475000Y-32790625D01*
X60985928Y-32790625D01*
X61054006Y-33000000D01*
X63000000Y-33000000D01*
X63000000Y-31750000D01*
X63200000Y-31750000D01*
X63200000Y-33000000D01*
X65145994Y-33000000D01*
X65214072Y-32790625D01*
X65185506Y-32675766D01*
X64925305Y-32216117D01*
X64509011Y-31891031D01*
X64000000Y-31750000D01*
X63200000Y-31750000D01*
X63000000Y-31750000D01*
X62200000Y-31750000D01*
X61690989Y-31891031D01*
X61274695Y-32216117D01*
X61014494Y-32675766D01*
X60985928Y-32790625D01*
X60475000Y-32790625D01*
X60475000Y-26647749D01*
X60489434Y-26602248D01*
X60497440Y-26550528D01*
X60542981Y-26102175D01*
X62000000Y-26102175D01*
X62000000Y-26897825D01*
X62304482Y-27632909D01*
X62867091Y-28195518D01*
X63602175Y-28500000D01*
X64397825Y-28500000D01*
X65132909Y-28195518D01*
X65695518Y-27632909D01*
X66000000Y-26897825D01*
X66000000Y-26102175D01*
X65695518Y-25367091D01*
X65132909Y-24804482D01*
X64397825Y-24500000D01*
X63602175Y-24500000D01*
X62867091Y-24804482D01*
X62304482Y-25367091D01*
X62000000Y-26102175D01*
X60542981Y-26102175D01*
X60574006Y-25796746D01*
X60785391Y-25122219D01*
X61128089Y-24503973D01*
X61588107Y-23967261D01*
X62146647Y-23534013D01*
X62780893Y-23221925D01*
X63470909Y-23042189D01*
X64038359Y-22998526D01*
X64137819Y-22980631D01*
X64151897Y-22975000D01*
X105852251Y-22975000D01*
X105897752Y-22989434D01*
X105897752Y-22989434D01*
G37*
X105897752Y-22989434D02*
X105949472Y-22997440D01*
X106703254Y-23074006D01*
X107377781Y-23285391D01*
X107996027Y-23628089D01*
X108532739Y-24088107D01*
X108965987Y-24646647D01*
X109278075Y-25280893D01*
X109457811Y-25970909D01*
X109501474Y-26538359D01*
X109519369Y-26637819D01*
X109525000Y-26651897D01*
X109525001Y-50852248D01*
X109510566Y-50897752D01*
X109502560Y-50949472D01*
X109425994Y-51703254D01*
X109214609Y-52377783D01*
X108871910Y-52996029D01*
X108411893Y-53532739D01*
X107853354Y-53965986D01*
X107219108Y-54278074D01*
X106529086Y-54457812D01*
X105961641Y-54501474D01*
X105862182Y-54519369D01*
X105848103Y-54525000D01*
X98100000Y-54525000D01*
X98100000Y-49000000D01*
X98092388Y-48961732D01*
X98070711Y-48929289D01*
X98038268Y-48907612D01*
X98000000Y-48900000D01*
X81000000Y-48900000D01*
X80961732Y-48907612D01*
X80929289Y-48929289D01*
X80907612Y-48961732D01*
X80900000Y-49000000D01*
X80900000Y-54525000D01*
X64147749Y-54525000D01*
X64102248Y-54510566D01*
X64050528Y-54502560D01*
X63296746Y-54425994D01*
X62622217Y-54214609D01*
X62003971Y-53871910D01*
X61467261Y-53411893D01*
X61034014Y-52853354D01*
X61032766Y-52850816D01*
X62949990Y-52850816D01*
X62949990Y-53149184D01*
X63064171Y-53424841D01*
X63275149Y-53635819D01*
X63550806Y-53750000D01*
X63849174Y-53750000D01*
X63969885Y-53700000D01*
X74431065Y-53700000D01*
X74500000Y-53713712D01*
X74568935Y-53700000D01*
X74568940Y-53700000D01*
X74773126Y-53659385D01*
X75004671Y-53504671D01*
X75043725Y-53446223D01*
X80926949Y-47563000D01*
X91663672Y-47563000D01*
X91638500Y-47623771D01*
X91638500Y-47902249D01*
X91745068Y-48159528D01*
X91941982Y-48356442D01*
X92199261Y-48463010D01*
X92477739Y-48463010D01*
X92735018Y-48356442D01*
X92803450Y-48288010D01*
X97964549Y-48288010D01*
X99233500Y-49556963D01*
X99233501Y-51530526D01*
X99233500Y-51530531D01*
X99233500Y-51541550D01*
X99165068Y-51609982D01*
X99058500Y-51867261D01*
X99058500Y-52145739D01*
X99165068Y-52403018D01*
X99361982Y-52599932D01*
X99619261Y-52706500D01*
X99897739Y-52706500D01*
X100155018Y-52599932D01*
X100351932Y-52403018D01*
X100458500Y-52145739D01*
X100458500Y-51867261D01*
X100351932Y-51609982D01*
X100283500Y-51541550D01*
X100283500Y-49774948D01*
X104040777Y-53532226D01*
X104079829Y-53590671D01*
X104311374Y-53745385D01*
X104515560Y-53786000D01*
X104515565Y-53786000D01*
X104584500Y-53799712D01*
X104653435Y-53786000D01*
X106971739Y-53786000D01*
X107036687Y-53759098D01*
X107105626Y-53745385D01*
X107164068Y-53706335D01*
X107229018Y-53679432D01*
X107278729Y-53629721D01*
X107337171Y-53590671D01*
X107376221Y-53532229D01*
X107425932Y-53482518D01*
X107452835Y-53417568D01*
X107491885Y-53359126D01*
X107505598Y-53290187D01*
X107532500Y-53225239D01*
X107532500Y-53154940D01*
X107546213Y-53086000D01*
X107532500Y-53017060D01*
X107532500Y-52946761D01*
X107505598Y-52881813D01*
X107491885Y-52812874D01*
X107452835Y-52754432D01*
X107425932Y-52689482D01*
X107376221Y-52639771D01*
X107337171Y-52581329D01*
X107278729Y-52542279D01*
X107229018Y-52492568D01*
X107164068Y-52465665D01*
X107105626Y-52426615D01*
X107036687Y-52412902D01*
X106971739Y-52386000D01*
X104874449Y-52386000D01*
X100534639Y-48046190D01*
X105165231Y-48046190D01*
X105353742Y-48317819D01*
X106109857Y-48623427D01*
X106925369Y-48616421D01*
X107646258Y-48317819D01*
X107834769Y-48046190D01*
X106500000Y-46711421D01*
X105165231Y-48046190D01*
X100534639Y-48046190D01*
X98905225Y-46416777D01*
X98866171Y-46358329D01*
X98634626Y-46203615D01*
X98515187Y-46179857D01*
X104446573Y-46179857D01*
X104453579Y-46995369D01*
X104752181Y-47716258D01*
X105023810Y-47904769D01*
X106358579Y-46570000D01*
X106641421Y-46570000D01*
X107976190Y-47904769D01*
X108247819Y-47716258D01*
X108553427Y-46960143D01*
X108546421Y-46144631D01*
X108247819Y-45423742D01*
X107976190Y-45235231D01*
X106641421Y-46570000D01*
X106358579Y-46570000D01*
X105023810Y-45235231D01*
X104752181Y-45423742D01*
X104446573Y-46179857D01*
X98515187Y-46179857D01*
X98430440Y-46163000D01*
X98430435Y-46163000D01*
X98361500Y-46149288D01*
X98292565Y-46163000D01*
X80705936Y-46163000D01*
X80637000Y-46149288D01*
X80568063Y-46163000D01*
X80568060Y-46163000D01*
X80410040Y-46194432D01*
X80363873Y-46203615D01*
X80227190Y-46294945D01*
X80132329Y-46358329D01*
X80093277Y-46416774D01*
X74210052Y-52300000D01*
X63969885Y-52300000D01*
X63849174Y-52250000D01*
X63550806Y-52250000D01*
X63275149Y-52364181D01*
X63064171Y-52575159D01*
X62949990Y-52850816D01*
X61032766Y-52850816D01*
X60721926Y-52219108D01*
X60542188Y-51529086D01*
X60498526Y-50961641D01*
X60480631Y-50862182D01*
X60475000Y-50848103D01*
X60475000Y-44809375D01*
X60985928Y-44809375D01*
X61014494Y-44924234D01*
X61274695Y-45383883D01*
X61690989Y-45708969D01*
X62200000Y-45850000D01*
X63000000Y-45850000D01*
X63000000Y-44600000D01*
X63200000Y-44600000D01*
X63200000Y-45850000D01*
X64000000Y-45850000D01*
X64509011Y-45708969D01*
X64925305Y-45383883D01*
X65185506Y-44924234D01*
X65214072Y-44809375D01*
X65145994Y-44600000D01*
X63200000Y-44600000D01*
X63000000Y-44600000D01*
X61054006Y-44600000D01*
X60985928Y-44809375D01*
X60475000Y-44809375D01*
X60475000Y-44190625D01*
X60985928Y-44190625D01*
X61054006Y-44400000D01*
X63000000Y-44400000D01*
X63000000Y-43150000D01*
X63200000Y-43150000D01*
X63200000Y-44400000D01*
X65145994Y-44400000D01*
X65214072Y-44190625D01*
X65185506Y-44075766D01*
X64925305Y-43616117D01*
X64509011Y-43291031D01*
X64000000Y-43150000D01*
X63200000Y-43150000D01*
X63000000Y-43150000D01*
X62200000Y-43150000D01*
X61690989Y-43291031D01*
X61274695Y-43616117D01*
X61014494Y-44075766D01*
X60985928Y-44190625D01*
X60475000Y-44190625D01*
X60475000Y-40911033D01*
X62150000Y-40911033D01*
X62150000Y-41288967D01*
X62294629Y-41638132D01*
X62561868Y-41905371D01*
X62911033Y-42050000D01*
X63288967Y-42050000D01*
X63638132Y-41905371D01*
X63905371Y-41638132D01*
X64050000Y-41288967D01*
X64050000Y-40911033D01*
X63905371Y-40561868D01*
X63638132Y-40294629D01*
X63288967Y-40150000D01*
X62911033Y-40150000D01*
X62561868Y-40294629D01*
X62294629Y-40561868D01*
X62150000Y-40911033D01*
X60475000Y-40911033D01*
X60475000Y-36311033D01*
X62150000Y-36311033D01*
X62150000Y-36688967D01*
X62294629Y-37038132D01*
X62561868Y-37305371D01*
X62911033Y-37450000D01*
X63288967Y-37450000D01*
X63638132Y-37305371D01*
X63905371Y-37038132D01*
X64050000Y-36688967D01*
X64050000Y-36311033D01*
X63996868Y-36182761D01*
X72007500Y-36182761D01*
X72007500Y-36461239D01*
X72114068Y-36718518D01*
X72310982Y-36915432D01*
X72568261Y-37022000D01*
X72846739Y-37022000D01*
X73104018Y-36915432D01*
X73300932Y-36718518D01*
X73407500Y-36461239D01*
X73407500Y-36182761D01*
X73300932Y-35925482D01*
X73232500Y-35857050D01*
X73232500Y-35815500D01*
X73481739Y-35815500D01*
X73739018Y-35708932D01*
X73935932Y-35512018D01*
X74042500Y-35254739D01*
X74042500Y-35157961D01*
X78521006Y-30679456D01*
X78532500Y-30690950D01*
X78532501Y-38893289D01*
X78522215Y-38945000D01*
X78562961Y-39149844D01*
X78562962Y-39149845D01*
X78678997Y-39323504D01*
X78722833Y-39352794D01*
X78958794Y-39588756D01*
X78944068Y-39603482D01*
X78837500Y-39860761D01*
X78837500Y-40139239D01*
X78944068Y-40396518D01*
X79140982Y-40593432D01*
X79398261Y-40700000D01*
X79676739Y-40700000D01*
X79934018Y-40593432D01*
X80130932Y-40396518D01*
X80237500Y-40139239D01*
X80237500Y-39860761D01*
X80130932Y-39603482D01*
X80062500Y-39535050D01*
X80062500Y-39476706D01*
X80072785Y-39425000D01*
X80032039Y-39220155D01*
X79945293Y-39090330D01*
X79916004Y-39046496D01*
X79872170Y-39017207D01*
X79582500Y-38727538D01*
X79582500Y-30749334D01*
X79680124Y-30651710D01*
X79786692Y-30394431D01*
X79786692Y-30115953D01*
X79680124Y-29858674D01*
X79592450Y-29771000D01*
X85990550Y-29771000D01*
X86058982Y-29839432D01*
X86316261Y-29946000D01*
X86594739Y-29946000D01*
X86852018Y-29839432D01*
X87048932Y-29642518D01*
X87155500Y-29385239D01*
X87155500Y-29106761D01*
X87048932Y-28849482D01*
X86852018Y-28652568D01*
X86717421Y-28596816D01*
X94881000Y-28596816D01*
X94881000Y-28895184D01*
X94995181Y-29170841D01*
X95206159Y-29381819D01*
X95481816Y-29496000D01*
X95638539Y-29496000D01*
X99174994Y-33032457D01*
X99174995Y-44553316D01*
X99174994Y-44553321D01*
X99174994Y-44564340D01*
X99064175Y-44675159D01*
X98949994Y-44950816D01*
X98949994Y-45249184D01*
X99064175Y-45524841D01*
X99275153Y-45735819D01*
X99550810Y-45850000D01*
X99849178Y-45850000D01*
X100124835Y-45735819D01*
X100335813Y-45524841D01*
X100449994Y-45249184D01*
X100449994Y-44950816D01*
X100335813Y-44675159D01*
X100224994Y-44564340D01*
X100224994Y-40981468D01*
X102425000Y-40981468D01*
X102425000Y-41518532D01*
X102630525Y-42014714D01*
X103010286Y-42394475D01*
X103272546Y-42503107D01*
X103025286Y-42605525D01*
X102645525Y-42985286D01*
X102440000Y-43481468D01*
X102440000Y-44018532D01*
X102645525Y-44514714D01*
X103025286Y-44894475D01*
X103521468Y-45100000D01*
X104058532Y-45100000D01*
X104073476Y-45093810D01*
X105165231Y-45093810D01*
X106500000Y-46428579D01*
X107834769Y-45093810D01*
X107646258Y-44822181D01*
X106890143Y-44516573D01*
X106074631Y-44523579D01*
X105353742Y-44822181D01*
X105165231Y-45093810D01*
X104073476Y-45093810D01*
X104554714Y-44894475D01*
X104934475Y-44514714D01*
X105140000Y-44018532D01*
X105140000Y-43481468D01*
X104934475Y-42985286D01*
X104554714Y-42605525D01*
X104292454Y-42496893D01*
X104539714Y-42394475D01*
X104919475Y-42014714D01*
X105125000Y-41518532D01*
X105125000Y-40981468D01*
X104919475Y-40485286D01*
X104539714Y-40105525D01*
X104297454Y-40005178D01*
X104564714Y-39894475D01*
X104944475Y-39514714D01*
X105150000Y-39018532D01*
X105150000Y-38481468D01*
X104944475Y-37985286D01*
X104564714Y-37605525D01*
X104315699Y-37502380D01*
X104516016Y-37419406D01*
X104619100Y-37220522D01*
X103790000Y-36391421D01*
X102960900Y-37220522D01*
X103063984Y-37419406D01*
X103284596Y-37502257D01*
X103035286Y-37605525D01*
X102655525Y-37985286D01*
X102450000Y-38481468D01*
X102450000Y-39018532D01*
X102655525Y-39514714D01*
X103035286Y-39894475D01*
X103277546Y-39994822D01*
X103010286Y-40105525D01*
X102630525Y-40485286D01*
X102425000Y-40981468D01*
X100224994Y-40981468D01*
X100224994Y-36026761D01*
X102431775Y-36026761D01*
X102449734Y-36563524D01*
X102620594Y-36976016D01*
X102819478Y-37079100D01*
X103648579Y-36250000D01*
X103931421Y-36250000D01*
X104760522Y-37079100D01*
X104959406Y-36976016D01*
X105148225Y-36473239D01*
X105130266Y-35936476D01*
X104959406Y-35523984D01*
X104760522Y-35420900D01*
X103931421Y-36250000D01*
X103648579Y-36250000D01*
X102819478Y-35420900D01*
X102620594Y-35523984D01*
X102431775Y-36026761D01*
X100224994Y-36026761D01*
X100224994Y-35279478D01*
X102960900Y-35279478D01*
X103790000Y-36108579D01*
X104619100Y-35279478D01*
X104516016Y-35080594D01*
X104051623Y-34906190D01*
X105165231Y-34906190D01*
X105353742Y-35177819D01*
X106109857Y-35483427D01*
X106925369Y-35476421D01*
X107646258Y-35177819D01*
X107834769Y-34906190D01*
X106500000Y-33571421D01*
X105165231Y-34906190D01*
X104051623Y-34906190D01*
X104013239Y-34891775D01*
X103476476Y-34909734D01*
X103063984Y-35080594D01*
X102960900Y-35279478D01*
X100224994Y-35279478D01*
X100224994Y-33039857D01*
X104446573Y-33039857D01*
X104453579Y-33855369D01*
X104752181Y-34576258D01*
X105023810Y-34764769D01*
X106358579Y-33430000D01*
X106641421Y-33430000D01*
X107976190Y-34764769D01*
X108247819Y-34576258D01*
X108553427Y-33820143D01*
X108546421Y-33004631D01*
X108247819Y-32283742D01*
X107976190Y-32095231D01*
X106641421Y-33430000D01*
X106358579Y-33430000D01*
X105023810Y-32095231D01*
X104752181Y-32283742D01*
X104446573Y-33039857D01*
X100224994Y-33039857D01*
X100224994Y-32866700D01*
X100235279Y-32814994D01*
X100194533Y-32610149D01*
X100107787Y-32480324D01*
X100078498Y-32436490D01*
X100034665Y-32407202D01*
X99581273Y-31953810D01*
X105165231Y-31953810D01*
X106500000Y-33288579D01*
X107834769Y-31953810D01*
X107646258Y-31682181D01*
X106890143Y-31376573D01*
X106074631Y-31383579D01*
X105353742Y-31682181D01*
X105165231Y-31953810D01*
X99581273Y-31953810D01*
X96381000Y-28753539D01*
X96381000Y-28596816D01*
X96266819Y-28321159D01*
X96055841Y-28110181D01*
X95780184Y-27996000D01*
X95481816Y-27996000D01*
X95206159Y-28110181D01*
X94995181Y-28321159D01*
X94881000Y-28596816D01*
X86717421Y-28596816D01*
X86594739Y-28546000D01*
X86316261Y-28546000D01*
X86058982Y-28652568D01*
X85990550Y-28721000D01*
X79554460Y-28721000D01*
X82173285Y-26102175D01*
X104000000Y-26102175D01*
X104000000Y-26897825D01*
X104304482Y-27632909D01*
X104867091Y-28195518D01*
X105602175Y-28500000D01*
X106397825Y-28500000D01*
X107132909Y-28195518D01*
X107695518Y-27632909D01*
X108000000Y-26897825D01*
X108000000Y-26102175D01*
X107695518Y-25367091D01*
X107132909Y-24804482D01*
X106397825Y-24500000D01*
X105602175Y-24500000D01*
X104867091Y-24804482D01*
X104304482Y-25367091D01*
X104000000Y-26102175D01*
X82173285Y-26102175D01*
X83504461Y-24771000D01*
X84415550Y-24771000D01*
X84483982Y-24839432D01*
X84741261Y-24946000D01*
X85019739Y-24946000D01*
X85277018Y-24839432D01*
X85473932Y-24642518D01*
X85580500Y-24385239D01*
X85580500Y-24106761D01*
X85473932Y-23849482D01*
X85277018Y-23652568D01*
X85019739Y-23546000D01*
X84741261Y-23546000D01*
X84483982Y-23652568D01*
X84415550Y-23721000D01*
X83338704Y-23721000D01*
X83286998Y-23710715D01*
X83082153Y-23751461D01*
X82908494Y-23867496D01*
X82879205Y-23911330D01*
X72372834Y-34417703D01*
X72328997Y-34446994D01*
X72245548Y-34571885D01*
X72212961Y-34620654D01*
X72172215Y-34825498D01*
X72182501Y-34877209D01*
X72182500Y-35857050D01*
X72114068Y-35925482D01*
X72007500Y-36182761D01*
X63996868Y-36182761D01*
X63905371Y-35961868D01*
X63638132Y-35694629D01*
X63288967Y-35550000D01*
X62911033Y-35550000D01*
X62561868Y-35694629D01*
X62294629Y-35961868D01*
X62150000Y-36311033D01*
X60475000Y-36311033D01*
X60475000Y-33409375D01*
X60985928Y-33409375D01*
X61014494Y-33524234D01*
X61274695Y-33983883D01*
X61690989Y-34308969D01*
X62200000Y-34450000D01*
X63000000Y-34450000D01*
X63000000Y-33200000D01*
X63200000Y-33200000D01*
X63200000Y-34450000D01*
X64000000Y-34450000D01*
X64509011Y-34308969D01*
X64925305Y-33983883D01*
X65185506Y-33524234D01*
X65214072Y-33409375D01*
X65145994Y-33200000D01*
X63200000Y-33200000D01*
X63000000Y-33200000D01*
X61054006Y-33200000D01*
X60985928Y-33409375D01*
X60475000Y-33409375D01*
X60475000Y-32790625D01*
X60985928Y-32790625D01*
X61054006Y-33000000D01*
X63000000Y-33000000D01*
X63000000Y-31750000D01*
X63200000Y-31750000D01*
X63200000Y-33000000D01*
X65145994Y-33000000D01*
X65214072Y-32790625D01*
X65185506Y-32675766D01*
X64925305Y-32216117D01*
X64509011Y-31891031D01*
X64000000Y-31750000D01*
X63200000Y-31750000D01*
X63000000Y-31750000D01*
X62200000Y-31750000D01*
X61690989Y-31891031D01*
X61274695Y-32216117D01*
X61014494Y-32675766D01*
X60985928Y-32790625D01*
X60475000Y-32790625D01*
X60475000Y-26647749D01*
X60489434Y-26602248D01*
X60497440Y-26550528D01*
X60542981Y-26102175D01*
X62000000Y-26102175D01*
X62000000Y-26897825D01*
X62304482Y-27632909D01*
X62867091Y-28195518D01*
X63602175Y-28500000D01*
X64397825Y-28500000D01*
X65132909Y-28195518D01*
X65695518Y-27632909D01*
X66000000Y-26897825D01*
X66000000Y-26102175D01*
X65695518Y-25367091D01*
X65132909Y-24804482D01*
X64397825Y-24500000D01*
X63602175Y-24500000D01*
X62867091Y-24804482D01*
X62304482Y-25367091D01*
X62000000Y-26102175D01*
X60542981Y-26102175D01*
X60574006Y-25796746D01*
X60785391Y-25122219D01*
X61128089Y-24503973D01*
X61588107Y-23967261D01*
X62146647Y-23534013D01*
X62780893Y-23221925D01*
X63470909Y-23042189D01*
X64038359Y-22998526D01*
X64137819Y-22980631D01*
X64151897Y-22975000D01*
X105852251Y-22975000D01*
X105897752Y-22989434D01*
G04 #@! TD*
M02*
