G04 #@! TF.GenerationSoftware,KiCad,Pcbnew,5.0.2*
G04 #@! TF.CreationDate,2019-05-28T10:19:17+01:00*
G04 #@! TF.ProjectId,USBInlinePWMmer,55534249-6e6c-4696-9e65-50574d6d6572,rev?*
G04 #@! TF.SameCoordinates,Original*
G04 #@! TF.FileFunction,Profile,NP*
%FSLAX46Y46*%
G04 Gerber Fmt 4.6, Leading zero omitted, Abs format (unit mm)*
G04 Created by KiCad (PCBNEW 5.0.2) date Tue 28 May 2019 10:19:17 BST*
%MOMM*%
%LPD*%
G01*
G04 APERTURE LIST*
%ADD10C,0.200000*%
%ADD11C,0.150000*%
G04 APERTURE END LIST*
D10*
X110000000Y-51000000D02*
G75*
G02X106000000Y-55000000I-4000000J0D01*
G01*
X64000000Y-55000000D02*
G75*
G02X60000000Y-51000000I0J4000000D01*
G01*
X106000000Y-22500000D02*
G75*
G02X110000000Y-26500000I0J-4000000D01*
G01*
X60000000Y-26500000D02*
G75*
G02X64000000Y-22500000I4000000J0D01*
G01*
D11*
X64000000Y-22500000D02*
X106000000Y-22500000D01*
X110000000Y-26500000D02*
X110000000Y-51000000D01*
X60000000Y-26500000D02*
X60000000Y-51000000D01*
X64000000Y-55000000D02*
X106000000Y-55000000D01*
M02*
