EESchema Schematic File Version 4
LIBS:USBInlinePWMmer-cache
EELAYER 26 0
EELAYER END
$Descr A4 11693 8268
encoding utf-8
Sheet 1 1
Title "USB Inline PWMmer"
Date "2019-03-04"
Rev "v1"
Comp "Bob Clough"
Comment1 ""
Comment2 ""
Comment3 ""
Comment4 ""
$EndDescr
$Comp
L Connector:USB_A J101
U 1 1 5C7D2229
P 1400 1800
F 0 "J101" H 1455 2267 50  0000 C CNN
F 1 "USB_IN" H 1455 2176 50  0000 C CNN
F 2 "Connector_USB:USB_A_CNCTech_1001-011-01101_Horizontal" H 1550 1750 50  0001 C CNN
F 3 " ~" H 1550 1750 50  0001 C CNN
	1    1400 1800
	1    0    0    -1  
$EndComp
$Comp
L Connector:USB_A J102
U 1 1 5C7D67BA
P 10050 5050
F 0 "J102" H 9820 5041 50  0000 R CNN
F 1 "USB_OUT" H 9820 4950 50  0000 R CNN
F 2 "DigiKey:USB_A_Female_UE27AC54100" H 10200 5000 50  0001 C CNN
F 3 " ~" H 10200 5000 50  0001 C CNN
	1    10050 5050
	-1   0    0    -1  
$EndComp
$Comp
L Device:Q_PMOS_GSD Q103
U 1 1 5C7D6D0C
P 9550 4750
F 0 "Q103" V 9802 4750 50  0000 C CNN
F 1 "Q_PMOS_GSD" V 9802 4750 50  0001 C CNN
F 2 "Package_TO_SOT_SMD:SOT-23" H 9750 4850 50  0001 C CNN
F 3 "~" H 9550 4750 50  0001 C CNN
F 4 "https://uk.farnell.com/vishay/si2301cds-t1-e3/mosfet-p-ch-20v-3-1a-sot-23/dp/2335284" V 9550 4750 50  0001 C CNN "Farnell"
	1    9550 4750
	0    1    1    0   
$EndComp
$Comp
L RF_Module:ESP-12E U103
U 1 1 5C7D6EFD
P 3000 6150
F 0 "U103" H 3450 5500 50  0000 C CNN
F 1 "ESP-12E" H 2700 5500 50  0000 C CNN
F 2 "RF_Module:ESP-12E" H 3000 6150 50  0001 C CNN
F 3 "http://wiki.ai-thinker.com/_media/esp8266/esp8266_series_modules_user_manual_v1.1.pdf" H 2650 6250 50  0001 C CNN
	1    3000 6150
	1    0    0    -1  
$EndComp
$Comp
L power:+3V3 #PWR0119
U 1 1 5C7D7087
P 3000 5350
F 0 "#PWR0119" H 3000 5200 50  0001 C CNN
F 1 "+3V3" H 3000 5500 50  0000 C CNN
F 2 "" H 3000 5350 50  0001 C CNN
F 3 "" H 3000 5350 50  0001 C CNN
	1    3000 5350
	1    0    0    -1  
$EndComp
$Comp
L power:+3V3 #PWR0124
U 1 1 5C7D70D1
P 1800 5750
F 0 "#PWR0124" H 1800 5600 50  0001 C CNN
F 1 "+3V3" V 1815 5878 50  0000 L CNN
F 2 "" H 1800 5750 50  0001 C CNN
F 3 "" H 1800 5750 50  0001 C CNN
	1    1800 5750
	0    -1   -1   0   
$EndComp
$Comp
L power:GND #PWR0127
U 1 1 5C7D7164
P 3000 6850
F 0 "#PWR0127" H 3000 6600 50  0001 C CNN
F 1 "GND" H 3005 6677 50  0001 C CNN
F 2 "" H 3000 6850 50  0001 C CNN
F 3 "" H 3000 6850 50  0001 C CNN
	1    3000 6850
	1    0    0    -1  
$EndComp
$Comp
L power:+3V3 #PWR0122
U 1 1 5C7D71A0
P 1800 5550
F 0 "#PWR0122" H 1800 5400 50  0001 C CNN
F 1 "+3V3" V 1815 5678 50  0000 L CNN
F 2 "" H 1800 5550 50  0001 C CNN
F 3 "" H 1800 5550 50  0001 C CNN
	1    1800 5550
	0    -1   -1   0   
$EndComp
$Comp
L power:+3V3 #PWR0123
U 1 1 5C7D71B3
P 4200 5550
F 0 "#PWR0123" H 4200 5400 50  0001 C CNN
F 1 "+3V3" V 4215 5678 50  0000 L CNN
F 2 "" H 4200 5550 50  0001 C CNN
F 3 "" H 4200 5550 50  0001 C CNN
	1    4200 5550
	0    1    1    0   
$EndComp
$Comp
L power:+3V3 #PWR0125
U 1 1 5C7D71CE
P 4200 5750
F 0 "#PWR0125" H 4200 5600 50  0001 C CNN
F 1 "+3V3" V 4215 5878 50  0000 L CNN
F 2 "" H 4200 5750 50  0001 C CNN
F 3 "" H 4200 5750 50  0001 C CNN
	1    4200 5750
	0    1    1    0   
$EndComp
$Comp
L Device:R R107
U 1 1 5C7D728F
P 1950 5550
F 0 "R107" V 1950 5550 50  0000 C CNN
F 1 "12K" V 1834 5550 50  0001 C CNN
F 2 "Resistor_SMD:R_0603_1608Metric" V 1880 5550 50  0001 C CNN
F 3 "~" H 1950 5550 50  0001 C CNN
	1    1950 5550
	0    1    1    0   
$EndComp
$Comp
L Device:R R109
U 1 1 5C7D73C0
P 1950 5750
F 0 "R109" V 1950 5750 50  0000 C CNN
F 1 "12K" V 1834 5750 50  0001 C CNN
F 2 "Resistor_SMD:R_0603_1608Metric" V 1880 5750 50  0001 C CNN
F 3 "~" H 1950 5750 50  0001 C CNN
	1    1950 5750
	0    1    1    0   
$EndComp
$Comp
L Device:R R110
U 1 1 5C7D741C
P 4050 5750
F 0 "R110" V 4050 5750 50  0000 C CNN
F 1 "12K" V 4150 5750 50  0001 C CNN
F 2 "Resistor_SMD:R_0603_1608Metric" V 3980 5750 50  0001 C CNN
F 3 "~" H 4050 5750 50  0001 C CNN
	1    4050 5750
	0    1    1    0   
$EndComp
$Comp
L Device:R R108
U 1 1 5C7D7480
P 4050 5550
F 0 "R108" V 4050 5550 50  0000 C CNN
F 1 "12K" V 3950 5550 50  0001 C CNN
F 2 "Resistor_SMD:R_0603_1608Metric" V 3980 5550 50  0001 C CNN
F 3 "~" H 4050 5550 50  0001 C CNN
	1    4050 5550
	0    1    1    0   
$EndComp
$Comp
L Device:R R111
U 1 1 5C7D74EC
P 4050 6450
F 0 "R111" V 4050 6450 50  0000 C CNN
F 1 "12K" V 3950 6450 50  0001 C CNN
F 2 "Resistor_SMD:R_0603_1608Metric" V 3980 6450 50  0001 C CNN
F 3 "~" H 4050 6450 50  0001 C CNN
	1    4050 6450
	0    1    1    0   
$EndComp
$Comp
L power:GND #PWR0126
U 1 1 5C7D7535
P 4200 6450
F 0 "#PWR0126" H 4200 6200 50  0001 C CNN
F 1 "GND" V 4205 6322 50  0000 R CNN
F 2 "" H 4200 6450 50  0001 C CNN
F 3 "" H 4200 6450 50  0001 C CNN
	1    4200 6450
	0    -1   -1   0   
$EndComp
$Comp
L Interface_USB:CH340G U102
U 1 1 5C7D78AD
P 3100 1900
F 0 "U102" H 2850 1350 50  0000 C CNN
F 1 "CH340G" H 3300 1350 50  0001 C CNN
F 2 "Package_SO:SOIC-16_3.9x9.9mm_P1.27mm" H 3150 1350 50  0001 L CNN
F 3 "http://www.datasheet5.com/pdf-local-2195953" H 2750 2700 50  0001 C CNN
	1    3100 1900
	1    0    0    -1  
$EndComp
$Comp
L power:GND #PWR0109
U 1 1 5C7D7A25
P 3100 2500
F 0 "#PWR0109" H 3100 2250 50  0001 C CNN
F 1 "GND" H 3105 2327 50  0001 C CNN
F 2 "" H 3100 2500 50  0001 C CNN
F 3 "" H 3100 2500 50  0001 C CNN
	1    3100 2500
	1    0    0    -1  
$EndComp
$Comp
L power:+3V3 #PWR0101
U 1 1 5C7D7A80
P 3000 1300
F 0 "#PWR0101" H 3000 1150 50  0001 C CNN
F 1 "+3V3" H 3015 1473 50  0000 C CNN
F 2 "" H 3000 1300 50  0001 C CNN
F 3 "" H 3000 1300 50  0001 C CNN
	1    3000 1300
	1    0    0    -1  
$EndComp
$Comp
L power:+3V3 #PWR0102
U 1 1 5C7D7A9F
P 3100 1300
F 0 "#PWR0102" H 3100 1150 50  0001 C CNN
F 1 "+3V3" H 3115 1473 50  0000 C CNN
F 2 "" H 3100 1300 50  0001 C CNN
F 3 "" H 3100 1300 50  0001 C CNN
	1    3100 1300
	1    0    0    -1  
$EndComp
$Comp
L power:GND #PWR0108
U 1 1 5C7D83EC
P 1400 2200
F 0 "#PWR0108" H 1400 1950 50  0001 C CNN
F 1 "GND" H 1405 2027 50  0001 C CNN
F 2 "" H 1400 2200 50  0001 C CNN
F 3 "" H 1400 2200 50  0001 C CNN
	1    1400 2200
	1    0    0    -1  
$EndComp
$Comp
L power:GND #PWR0107
U 1 1 5C7D840B
P 1300 2200
F 0 "#PWR0107" H 1300 1950 50  0001 C CNN
F 1 "GND" H 1305 2027 50  0001 C CNN
F 2 "" H 1300 2200 50  0001 C CNN
F 3 "" H 1300 2200 50  0001 C CNN
	1    1300 2200
	1    0    0    -1  
$EndComp
$Comp
L Device:D D101
U 1 1 5C7D84C9
P 1900 1600
F 0 "D101" H 1900 1476 50  0000 C CNN
F 1 "D" V 1945 1679 50  0001 L CNN
F 2 "Diode_SMD:D_SOD-123" H 1900 1600 50  0001 C CNN
F 3 "~" H 1900 1600 50  0001 C CNN
	1    1900 1600
	-1   0    0    1   
$EndComp
$Comp
L power:+5V #PWR0103
U 1 1 5C7D8749
P 2100 1600
F 0 "#PWR0103" H 2100 1450 50  0001 C CNN
F 1 "+5V" V 2115 1728 50  0000 L CNN
F 2 "" H 2100 1600 50  0001 C CNN
F 3 "" H 2100 1600 50  0001 C CNN
	1    2100 1600
	0    1    1    0   
$EndComp
$Comp
L Device:Crystal_GND24 Y101
U 1 1 5C7D895C
P 2050 2950
F 0 "Y101" V 1900 2850 50  0000 R CNN
F 1 "12Mhz" V 1800 2850 50  0001 R CNN
F 2 "Crystal:Crystal_SMD_3225-4Pin_3.2x2.5mm" H 2050 2950 50  0001 C CNN
F 3 "~" H 2050 2950 50  0001 C CNN
	1    2050 2950
	0    -1   -1   0   
$EndComp
Wire Wire Line
	1700 1800 2700 1800
Wire Wire Line
	1700 1900 2700 1900
Wire Wire Line
	2700 2100 1850 2100
Wire Wire Line
	1850 2100 1850 2950
Wire Wire Line
	2250 2300 2250 2950
$Comp
L power:GND #PWR0113
U 1 1 5C7D8E6C
P 2050 3100
F 0 "#PWR0113" H 2050 2850 50  0001 C CNN
F 1 "GND" H 2055 2927 50  0001 C CNN
F 2 "" H 2050 3100 50  0001 C CNN
F 3 "" H 2050 3100 50  0001 C CNN
	1    2050 3100
	1    0    0    -1  
$EndComp
$Comp
L power:GND #PWR0110
U 1 1 5C7D8E8F
P 2050 2800
F 0 "#PWR0110" H 2050 2550 50  0001 C CNN
F 1 "GND" H 2055 2627 50  0001 C CNN
F 2 "" H 2050 2800 50  0001 C CNN
F 3 "" H 2050 2800 50  0001 C CNN
	1    2050 2800
	-1   0    0    1   
$EndComp
Wire Wire Line
	2250 2300 2700 2300
Wire Wire Line
	3800 1500 4000 1500
Wire Wire Line
	3800 1600 4000 1600
Text Label 4000 1500 2    50   ~ 0
RX
Text Label 4000 1600 2    50   ~ 0
TX
$Comp
L Device:R R101
U 1 1 5C7DAAAC
P 3650 1500
F 0 "R101" V 3650 1500 50  0000 C CNN
F 1 "470R" V 3550 1500 50  0001 C CNN
F 2 "Resistor_SMD:R_0603_1608Metric" V 3580 1500 50  0001 C CNN
F 3 "~" H 3650 1500 50  0001 C CNN
	1    3650 1500
	0    1    1    0   
$EndComp
$Comp
L Device:R R102
U 1 1 5C7DAC0A
P 3650 1600
F 0 "R102" V 3650 1600 50  0000 C CNN
F 1 "470R" V 3750 1600 50  0001 C CNN
F 2 "Resistor_SMD:R_0603_1608Metric" V 3580 1600 50  0001 C CNN
F 3 "~" H 3650 1600 50  0001 C CNN
	1    3650 1600
	0    1    1    0   
$EndComp
Text Label 2100 5550 0    50   ~ 0
RST
Text Label 2100 5750 0    50   ~ 0
EN
Text Label 3900 5550 2    50   ~ 0
GPIO0
Text Label 3900 5750 2    50   ~ 0
GPIO2
Text Label 3900 5650 2    50   ~ 0
TX
Text Label 3900 5850 2    50   ~ 0
RX
$Comp
L Transistor_BJT:BC847 Q101
U 1 1 5C7DEDD9
P 4000 2800
F 0 "Q101" V 4236 2800 50  0000 C CNN
F 1 "BC847" H 4191 2755 50  0001 L CNN
F 2 "Package_TO_SOT_SMD:SOT-23" H 4200 2725 50  0001 L CIN
F 3 "http://www.infineon.com/dgdl/Infineon-BC847SERIES_BC848SERIES_BC849SERIES_BC850SERIES-DS-v01_01-en.pdf?fileId=db3a304314dca389011541d4630a1657" H 4000 2800 50  0001 L CNN
F 4 "https://uk.farnell.com/nexperia/bc847-215/transistor-bipol-npn-45v-sot-23/dp/1081230" V 4000 2800 50  0001 C CNN "Farnell"
	1    4000 2800
	0    1    1    0   
$EndComp
$Comp
L Transistor_BJT:BC847 Q102
U 1 1 5C7DF009
P 4900 2800
F 0 "Q102" V 5136 2800 50  0000 C CNN
F 1 "BC847" H 5091 2755 50  0001 L CNN
F 2 "Package_TO_SOT_SMD:SOT-23" H 5100 2725 50  0001 L CIN
F 3 "http://www.infineon.com/dgdl/Infineon-BC847SERIES_BC848SERIES_BC849SERIES_BC850SERIES-DS-v01_01-en.pdf?fileId=db3a304314dca389011541d4630a1657" H 4900 2800 50  0001 L CNN
F 4 "https://uk.farnell.com/nexperia/bc847-215/transistor-bipol-npn-45v-sot-23/dp/1081230" V 4900 2800 50  0001 C CNN "Farnell"
	1    4900 2800
	0    1    1    0   
$EndComp
Text Label 3550 2200 0    50   ~ 0
DTR
Text Label 3550 2300 0    50   ~ 0
RTS
Wire Wire Line
	4200 2900 4400 2900
Wire Wire Line
	5100 2900 5300 2900
Text Label 4400 2900 2    50   ~ 0
GPIO0
Text Label 5300 2900 2    50   ~ 0
RST
$Comp
L Regulator_Linear:LP2985-3.3 U101
U 1 1 5C7E4DE2
P 7000 1700
F 0 "U101" H 7000 2042 50  0000 C CNN
F 1 "LP2985-3.3" H 7000 1951 50  0000 C CNN
F 2 "Package_TO_SOT_SMD:SOT-23-5" H 7000 2025 50  0001 C CNN
F 3 "http://www.ti.com/lit/ds/symlink/lp2985.pdf" H 7000 1700 50  0001 C CNN
F 4 "https://uk.farnell.com/texas-instruments/lp2985-33dbvte4/v-reg-ldo-0-15a-1-5-smd-2985/dp/1053672?st=LDO" H 7000 1700 50  0001 C CNN "Farnell"
	1    7000 1700
	1    0    0    -1  
$EndComp
$Comp
L power:+5V #PWR0104
U 1 1 5C7E4FE3
P 6350 1600
F 0 "#PWR0104" H 6350 1450 50  0001 C CNN
F 1 "+5V" V 6365 1728 50  0000 L CNN
F 2 "" H 6350 1600 50  0001 C CNN
F 3 "" H 6350 1600 50  0001 C CNN
	1    6350 1600
	0    -1   -1   0   
$EndComp
$Comp
L power:GND #PWR0106
U 1 1 5C7E50BF
P 6350 2000
F 0 "#PWR0106" H 6350 1750 50  0001 C CNN
F 1 "GND" H 6355 1827 50  0001 C CNN
F 2 "" H 6350 2000 50  0001 C CNN
F 3 "" H 6350 2000 50  0001 C CNN
	1    6350 2000
	0    1    1    0   
$EndComp
$Comp
L power:+3V3 #PWR0105
U 1 1 5C7E5220
P 8850 1600
F 0 "#PWR0105" H 8850 1450 50  0001 C CNN
F 1 "+3V3" V 8865 1728 50  0000 L CNN
F 2 "" H 8850 1600 50  0001 C CNN
F 3 "" H 8850 1600 50  0001 C CNN
	1    8850 1600
	0    1    1    0   
$EndComp
Wire Wire Line
	6600 1600 6600 1700
Connection ~ 6600 1600
Wire Wire Line
	7000 2000 6450 2000
Connection ~ 7000 2000
$Comp
L Device:C C101
U 1 1 5C7E658B
P 6450 1850
F 0 "C101" H 6450 1950 50  0000 R CNN
F 1 "1uF" V 6289 1850 50  0001 C CNN
F 2 "Capacitor_SMD:C_0603_1608Metric" H 6488 1700 50  0001 C CNN
F 3 "~" H 6450 1850 50  0001 C CNN
	1    6450 1850
	-1   0    0    1   
$EndComp
Wire Wire Line
	6350 1600 6450 1600
Connection ~ 6450 1600
Wire Wire Line
	6450 1600 6600 1600
$Comp
L Device:C C102
U 1 1 5C7E7B49
P 7500 1850
F 0 "C102" H 7500 1950 50  0000 R CNN
F 1 "10nF" V 7339 1850 50  0001 C CNN
F 2 "Capacitor_SMD:C_0603_1608Metric" H 7538 1700 50  0001 C CNN
F 3 "~" H 7500 1850 50  0001 C CNN
	1    7500 1850
	-1   0    0    1   
$EndComp
Wire Wire Line
	7400 1700 7500 1700
Wire Wire Line
	7000 2000 7500 2000
$Comp
L Device:C C103
U 1 1 5C7E9306
P 7750 1850
F 0 "C103" H 7750 1950 50  0000 R CNN
F 1 "2.2uF" V 7589 1850 50  0001 C CNN
F 2 "Capacitor_SMD:C_0603_1608Metric" H 7788 1700 50  0001 C CNN
F 3 "~" H 7750 1850 50  0001 C CNN
	1    7750 1850
	-1   0    0    1   
$EndComp
Wire Wire Line
	7750 2000 7500 2000
Connection ~ 7500 2000
Wire Wire Line
	7750 1700 7750 1600
Wire Wire Line
	7750 1600 7400 1600
Connection ~ 7750 1600
Wire Wire Line
	6450 1600 6450 1700
Text Label 2100 6350 0    50   ~ 0
GPIO9
Text Label 2100 6450 0    50   ~ 0
GPIO10
Wire Wire Line
	2100 6350 2400 6350
Wire Wire Line
	2100 6450 2400 6450
Wire Wire Line
	3600 6550 3900 6550
Wire Wire Line
	3600 6450 3900 6450
Wire Wire Line
	3600 6350 3900 6350
Wire Wire Line
	3600 6250 3900 6250
Wire Wire Line
	3600 6150 3900 6150
Wire Wire Line
	3600 6050 3900 6050
Wire Wire Line
	3600 5950 3900 5950
Wire Wire Line
	3600 5850 3900 5850
Wire Wire Line
	3600 5750 3900 5750
Wire Wire Line
	3600 5650 3900 5650
Wire Wire Line
	3600 5550 3900 5550
Text Label 3900 6050 2    50   ~ 0
GPIO5
Text Label 3900 5950 2    50   ~ 0
GPIO4
Text Label 3900 6150 2    50   ~ 0
GPIO12
Text Label 3900 6250 2    50   ~ 0
GPIO13
Text Label 3900 6350 2    50   ~ 0
GPIO14
Text Label 3900 6450 2    50   ~ 0
GPIO15
Text Label 3900 6550 2    50   ~ 0
GPIO16
Wire Wire Line
	2100 5550 2300 5550
Wire Wire Line
	2100 5750 2400 5750
$Comp
L power:GND #PWR0120
U 1 1 5C7FAEB6
P 10050 5450
F 0 "#PWR0120" H 10050 5200 50  0001 C CNN
F 1 "GND" H 10055 5277 50  0001 C CNN
F 2 "" H 10050 5450 50  0001 C CNN
F 3 "" H 10050 5450 50  0001 C CNN
	1    10050 5450
	1    0    0    -1  
$EndComp
$Comp
L power:GND #PWR0121
U 1 1 5C7FAF45
P 10150 5450
F 0 "#PWR0121" H 10150 5200 50  0001 C CNN
F 1 "GND" H 10155 5277 50  0001 C CNN
F 2 "" H 10150 5450 50  0001 C CNN
F 3 "" H 10150 5450 50  0001 C CNN
	1    10150 5450
	1    0    0    -1  
$EndComp
$Comp
L power:+5V #PWR0116
U 1 1 5C7FBC9A
P 9150 4850
F 0 "#PWR0116" H 9150 4700 50  0001 C CNN
F 1 "+5V" H 9165 5023 50  0000 C CNN
F 2 "" H 9150 4850 50  0001 C CNN
F 3 "" H 9150 4850 50  0001 C CNN
	1    9150 4850
	0    -1   -1   0   
$EndComp
$Comp
L Device:C C109
U 1 1 5C7FCD39
P 2300 5400
F 0 "C109" H 2300 5300 50  0000 R CNN
F 1 "1uF" V 2139 5400 50  0001 C CNN
F 2 "Capacitor_SMD:C_0603_1608Metric" H 2338 5250 50  0001 C CNN
F 3 "~" H 2300 5400 50  0001 C CNN
	1    2300 5400
	-1   0    0    1   
$EndComp
Connection ~ 2300 5550
Wire Wire Line
	2300 5550 2400 5550
$Comp
L power:GND #PWR0118
U 1 1 5C7FCEB8
P 2300 5250
F 0 "#PWR0118" H 2300 5000 50  0001 C CNN
F 1 "GND" H 2305 5077 50  0001 C CNN
F 2 "" H 2300 5250 50  0001 C CNN
F 3 "" H 2300 5250 50  0001 C CNN
	1    2300 5250
	-1   0    0    1   
$EndComp
$Comp
L Switch:SW_Push SW101
U 1 1 5C7FD4F6
P 6900 4750
F 0 "SW101" H 6900 5035 50  0000 C CNN
F 1 "SW_Reset" H 6900 4944 50  0000 C CNN
F 2 "Button_Switch_SMD:SW_SPST_EVPBF" H 6900 4950 50  0001 C CNN
F 3 "" H 6900 4950 50  0001 C CNN
	1    6900 4750
	1    0    0    -1  
$EndComp
$Comp
L power:GND #PWR0115
U 1 1 5C7FE46F
P 6700 4750
F 0 "#PWR0115" H 6700 4500 50  0001 C CNN
F 1 "GND" H 6705 4577 50  0001 C CNN
F 2 "" H 6700 4750 50  0001 C CNN
F 3 "" H 6700 4750 50  0001 C CNN
	1    6700 4750
	0    1    1    0   
$EndComp
Text Label 7100 4750 0    50   ~ 0
RST
$Comp
L Switch:SW_Push SW102
U 1 1 5C7FF2DE
P 6900 5150
F 0 "SW102" H 6900 5435 50  0000 C CNN
F 1 "SW_GPIO0" H 6900 5344 50  0000 C CNN
F 2 "Button_Switch_SMD:SW_SPST_EVPBF" H 6900 5350 50  0001 C CNN
F 3 "" H 6900 5350 50  0001 C CNN
	1    6900 5150
	1    0    0    -1  
$EndComp
$Comp
L power:GND #PWR0117
U 1 1 5C7FF2E5
P 6700 5150
F 0 "#PWR0117" H 6700 4900 50  0001 C CNN
F 1 "GND" H 6705 4977 50  0001 C CNN
F 2 "" H 6700 5150 50  0001 C CNN
F 3 "" H 6700 5150 50  0001 C CNN
	1    6700 5150
	0    1    1    0   
$EndComp
Text Label 7100 5150 0    50   ~ 0
GPIO0
Text Label 8950 3750 2    50   ~ 0
GPIO2
$Comp
L Device:LED D102
U 1 1 5C8032B1
P 8950 3600
F 0 "D102" H 8941 3725 50  0000 C CNN
F 1 "LED" H 8941 3725 50  0001 C CNN
F 2 "LED_SMD:LED_0805_2012Metric" H 8950 3600 50  0001 C CNN
F 3 "~" H 8950 3600 50  0001 C CNN
	1    8950 3600
	0    1    1    0   
$EndComp
$Comp
L Device:R R105
U 1 1 5C80340D
P 8950 3300
F 0 "R105" V 8950 3300 50  0000 C CNN
F 1 "470R" V 9050 3300 50  0001 C CNN
F 2 "Resistor_SMD:R_0603_1608Metric" V 8880 3300 50  0001 C CNN
F 3 "~" H 8950 3300 50  0001 C CNN
	1    8950 3300
	1    0    0    -1  
$EndComp
$Comp
L power:GND #PWR0114
U 1 1 5C80352A
P 9150 4050
F 0 "#PWR0114" H 9150 3800 50  0001 C CNN
F 1 "GND" H 9155 3877 50  0001 C CNN
F 2 "" H 9150 4050 50  0001 C CNN
F 3 "" H 9150 4050 50  0001 C CNN
	1    9150 4050
	0    1    1    0   
$EndComp
$Comp
L Device:R R106
U 1 1 5C80B3C9
P 9400 4550
F 0 "R106" V 9400 4550 50  0000 C CNN
F 1 "10K" V 9500 4550 50  0001 C CNN
F 2 "Resistor_SMD:R_0603_1608Metric" V 9330 4550 50  0001 C CNN
F 3 "~" H 9400 4550 50  0001 C CNN
	1    9400 4550
	0    -1   -1   0   
$EndComp
NoConn ~ 2400 5950
NoConn ~ 2400 6150
NoConn ~ 2400 6250
NoConn ~ 2400 6550
NoConn ~ 2400 6650
NoConn ~ 3900 6550
NoConn ~ 3900 6350
NoConn ~ 3900 6250
NoConn ~ 3900 6150
NoConn ~ 3900 6050
NoConn ~ 3900 5950
NoConn ~ 2100 6350
NoConn ~ 2100 6450
NoConn ~ 2700 1600
NoConn ~ 3500 1800
NoConn ~ 3500 1900
NoConn ~ 3500 2000
NoConn ~ 3500 2100
NoConn ~ 9750 5050
NoConn ~ 9750 5150
$Comp
L Device:C C104
U 1 1 5C98F425
P 8200 1850
F 0 "C104" H 8200 1750 50  0000 R CNN
F 1 "10uF" V 8039 1850 50  0001 C CNN
F 2 "Capacitor_SMD:C_0603_1608Metric" H 8238 1700 50  0001 C CNN
F 3 "~" H 8200 1850 50  0001 C CNN
	1    8200 1850
	-1   0    0    1   
$EndComp
$Comp
L Device:C C105
U 1 1 5C98F4EF
P 8450 1850
F 0 "C105" H 8450 1750 50  0000 R CNN
F 1 "10uF" V 8289 1850 50  0001 C CNN
F 2 "Capacitor_SMD:C_0603_1608Metric" H 8488 1700 50  0001 C CNN
F 3 "~" H 8450 1850 50  0001 C CNN
	1    8450 1850
	-1   0    0    1   
$EndComp
$Comp
L Device:C C106
U 1 1 5C98F54B
P 8700 1850
F 0 "C106" H 8700 1750 50  0000 R CNN
F 1 "2.2uF" V 8539 1850 50  0001 C CNN
F 2 "Capacitor_SMD:C_0603_1608Metric" H 8738 1700 50  0001 C CNN
F 3 "~" H 8700 1850 50  0001 C CNN
	1    8700 1850
	-1   0    0    1   
$EndComp
Wire Wire Line
	7750 1600 8200 1600
Wire Wire Line
	8200 1600 8200 1700
Wire Wire Line
	8200 1600 8450 1600
Wire Wire Line
	8450 1600 8450 1700
Connection ~ 8200 1600
Wire Wire Line
	8450 1600 8700 1600
Wire Wire Line
	8700 1600 8700 1700
Connection ~ 8450 1600
Wire Wire Line
	8700 1600 8850 1600
Connection ~ 8700 1600
Wire Wire Line
	7750 2000 8200 2000
Connection ~ 7750 2000
Connection ~ 8200 2000
Wire Wire Line
	8200 2000 8450 2000
Connection ~ 8450 2000
Wire Wire Line
	8450 2000 8700 2000
Wire Wire Line
	6450 2000 6350 2000
Connection ~ 6450 2000
$Comp
L Device:R R103
U 1 1 5C997627
P 4000 2450
F 0 "R103" V 4000 2450 50  0000 C CNN
F 1 "10K" V 4100 2450 50  0001 C CNN
F 2 "Resistor_SMD:R_0603_1608Metric" V 3930 2450 50  0001 C CNN
F 3 "~" H 4000 2450 50  0001 C CNN
	1    4000 2450
	-1   0    0    1   
$EndComp
Wire Wire Line
	3500 2200 3800 2200
Wire Wire Line
	3500 2300 4000 2300
Connection ~ 4000 2300
Wire Wire Line
	4000 2300 4700 2300
$Comp
L Device:R R104
U 1 1 5C998BE8
P 4900 2450
F 0 "R104" V 4900 2450 50  0000 C CNN
F 1 "10K" V 5000 2450 50  0001 C CNN
F 2 "Resistor_SMD:R_0603_1608Metric" V 4830 2450 50  0001 C CNN
F 3 "~" H 4900 2450 50  0001 C CNN
	1    4900 2450
	-1   0    0    1   
$EndComp
Wire Wire Line
	4900 2200 4900 2300
Wire Wire Line
	4700 2300 4700 2900
Wire Wire Line
	3800 2900 3800 2200
Connection ~ 3800 2200
Wire Wire Line
	3800 2200 4900 2200
Wire Wire Line
	1700 1600 1750 1600
Wire Wire Line
	2050 1600 2100 1600
Text Label 1700 1600 0    50   ~ 0
VBUS
$Comp
L Transistor_BJT:BC847 Q104
U 1 1 5CB8E74A
P 9350 3950
F 0 "Q104" V 9586 3950 50  0000 C CNN
F 1 "BC847" H 9541 3905 50  0001 L CNN
F 2 "Package_TO_SOT_SMD:SOT-23" H 9550 3875 50  0001 L CIN
F 3 "http://www.infineon.com/dgdl/Infineon-BC847SERIES_BC848SERIES_BC849SERIES_BC850SERIES-DS-v01_01-en.pdf?fileId=db3a304314dca389011541d4630a1657" H 9350 3950 50  0001 L CNN
F 4 "https://uk.farnell.com/nexperia/bc847-215/transistor-bipol-npn-45v-sot-23/dp/1081230" V 9350 3950 50  0001 C CNN "Farnell"
	1    9350 3950
	0    1    1    0   
$EndComp
Wire Wire Line
	9250 4550 9250 4850
Wire Wire Line
	9150 4850 9250 4850
Connection ~ 9250 4850
Wire Wire Line
	9250 4850 9350 4850
Wire Wire Line
	9550 4550 9550 4050
Connection ~ 9550 4550
$Comp
L power:GND #PWR0111
U 1 1 5CB96B24
P 8950 3150
F 0 "#PWR0111" H 8950 2900 50  0001 C CNN
F 1 "GND" H 8955 2977 50  0001 C CNN
F 2 "" H 8950 3150 50  0001 C CNN
F 3 "" H 8950 3150 50  0001 C CNN
	1    8950 3150
	-1   0    0    1   
$EndComp
$Comp
L Device:R R112
U 1 1 5CB96DC6
P 9100 3750
F 0 "R112" V 9100 3750 50  0000 C CNN
F 1 "10K" V 9200 3750 50  0001 C CNN
F 2 "Resistor_SMD:R_0603_1608Metric" V 9030 3750 50  0001 C CNN
F 3 "~" H 9100 3750 50  0001 C CNN
	1    9100 3750
	0    -1   -1   0   
$EndComp
Wire Wire Line
	9250 3750 9350 3750
Text Label 9550 4350 0    50   ~ 0
PFET_GATE
Text Label 9350 3750 0    50   ~ 0
NPN_GATE
$Comp
L Mechanical:MountingHole H101
U 1 1 5CB9AA10
P 10350 950
F 0 "H101" H 10450 996 50  0000 L CNN
F 1 "MountingHole" H 10450 905 50  0000 L CNN
F 2 "MountingHole:MountingHole_3.2mm_M3" H 10350 950 50  0001 C CNN
F 3 "~" H 10350 950 50  0001 C CNN
	1    10350 950 
	1    0    0    -1  
$EndComp
$Comp
L Mechanical:MountingHole H102
U 1 1 5CB9AB5E
P 10350 1200
F 0 "H102" H 10450 1246 50  0000 L CNN
F 1 "MountingHole" H 10450 1155 50  0000 L CNN
F 2 "MountingHole:MountingHole_3.2mm_M3" H 10350 1200 50  0001 C CNN
F 3 "~" H 10350 1200 50  0001 C CNN
	1    10350 1200
	1    0    0    -1  
$EndComp
$EndSCHEMATC
